%YAML 1.1
%TAG !u! tag:unity3d.com,2011:
--- !u!687078895 &4343727234628468602
SpriteAtlas:
  m_ObjectHideFlags: 0
  m_CorrespondingSourceObject: {fileID: 0}
  m_PrefabInstance: {fileID: 0}
  m_PrefabAsset: {fileID: 0}
  m_Name: FireBlock
  m_EditorData:
    serializedVersion: 2
    textureSettings:
      serializedVersion: 2
      anisoLevel: 1
      compressionQuality: 50
      maxTextureSize: 2048
      textureCompression: 0
      filterMode: 1
      generateMipMaps: 0
      readable: 0
      crunchedCompression: 0
      sRGB: 1
    platformSettings: []
    packingSettings:
      serializedVersion: 2
      padding: 4
      blockOffset: 1
      allowAlphaSplitting: 0
      enableRotation: 1
      enableTightPacking: 1
    variantMultiplier: 1
    packables:
    - {fileID: 102900000, guid: 4c5ff637e341ff44c99489eeff967950, type: 3}
    - {fileID: 102900000, guid: 5ae2b00613e236540aef525524333bfc, type: 3}
    totalSpriteSurfaceArea: 4950000
    bindAsDefault: 1
  m_MasterAtlas: {fileID: 0}
  m_PackedSprites:
  - {fileID: 21300000, guid: 66ca83b0257c6724b8e0b93d56fd156b, type: 3}
  - {fileID: 21300000, guid: ac246b01a62d8ef4cb4b51ba9f4b73e2, type: 3}
  - {fileID: 21300000, guid: 4ea24a11f0eea9a49a64f148b92f343f, type: 3}
  - {fileID: 21300000, guid: 0e1a4a8151fa7a9488b4bb5465771285, type: 3}
  - {fileID: 21300000, guid: 6e4585624379c294bbea3c0ccf08a9f5, type: 3}
  - {fileID: 21300000, guid: 8c1e76d228fbd594cad8f71fd81b3d5b, type: 3}
  - {fileID: 21300000, guid: bd44a7036089f1246b15f2f837485c96, type: 3}
  - {fileID: 21300000, guid: 1146c813eba7b2f4db9aefe51df66641, type: 3}
  - {fileID: 21300000, guid: 494ac223374d42c46aaee79b1bd06aeb, type: 3}
  - {fileID: 21300000, guid: 1868cf93fa149964a97117836fe7b451, type: 3}
  - {fileID: 21300000, guid: e09d9844492d9114185032ae4f362ed9, type: 3}
  - {fileID: 21300000, guid: 9916b844cbf9d22449f6c4efc0428598, type: 3}
  - {fileID: 21300000, guid: 11a51f94453b81743ae5a5ec00716b39, type: 3}
  - {fileID: 21300000, guid: e2221bc4c9ed92846934c7ddadb0b280, type: 3}
  - {fileID: 21300000, guid: eb88f3750cb825a49afdec6c375398e4, type: 3}
  - {fileID: 21300000, guid: 13543fd5740a82940a7a636134a39448, type: 3}
  - {fileID: 21300000, guid: 1e583ae53a85c584f863bd5f1519b585, type: 3}
  - {fileID: 21300000, guid: 2a028f163514d484a88b5885d0aa3fe8, type: 3}
  - {fileID: 21300000, guid: d8a102460a8b2a94ab676fb9738eaf09, type: 3}
  - {fileID: 21300000, guid: 4639d6960bad685459063290703f8446, type: 3}
  - {fileID: 21300000, guid: 8669cb96db59e2c4a8368bc771870f85, type: 3}
  - {fileID: 21300000, guid: 9fd3daa68ecd2ae41b078360a1b5b509, type: 3}
  - {fileID: 21300000, guid: 792d39c688e4962418cbd50ba9242eff, type: 3}
  - {fileID: 21300000, guid: db4b6f99dd0aa014986ed0d2153dabc7, type: 3}
  - {fileID: 21300000, guid: ddc219c9c479923429ebe54b3d803a56, type: 3}
  - {fileID: 21300000, guid: fbf4162a00be95c4fa39708d26b88d15, type: 3}
  - {fileID: 21300000, guid: 3d5dce0b91e55d845a13b680d9298f64, type: 3}
  - {fileID: 21300000, guid: 9539272b9ae41694c825592ab8d9ca44, type: 3}
  - {fileID: 21300000, guid: 05796beb81cf5ee40b946d514562500e, type: 3}
  - {fileID: 21300000, guid: 1a28191ca944bb041b99b2a38c1ad362, type: 3}
  - {fileID: 21300000, guid: 0fe8ee4c352664549b1b3744e478ace0, type: 3}
  - {fileID: 21300000, guid: 26c68d7caf468b645b33217dcc174230, type: 3}
  - {fileID: 21300000, guid: 1a1f8a0d4bd468c498976ebc055c5528, type: 3}
  - {fileID: 21300000, guid: 21f4842d8d77eb54fa6e7f4ae103067c, type: 3}
  - {fileID: 21300000, guid: 296c400e5ea45e64585ddff37dab8e9c, type: 3}
  - {fileID: 21300000, guid: a6eb027ecc1fdbb4790625b268b53102, type: 3}
  - {fileID: 21300000, guid: aebfb22f02d065e48acc93cdc4583364, type: 3}
  - {fileID: 21300000, guid: 5302404f744966a4e929886a42f1adc4, type: 3}
  - {fileID: 21300000, guid: 515fd6affa93d2f4e97f0a41cb35b332, type: 3}
  m_PackedSpriteNamesToIndex:
  - anim_fire_destroy_13
  - anim_fire_destroy_5
  - anim_fire_destroy_1
  - anim_fire_idle_7
  - anim_fire_destroy_14
  - anim_fire_destroy_8
  - anim_fire_destroy_12
  - anim_fire_idle_14
  - anim_fire_destroy_6
  - anim_fire_idle_11
  - anim_fire_idle_10
  - anim_fire_destroy_7
  - anim_fire_idle_5
  - anim_fire_idle_12
  - anim_fire_destroy_4
  - anim_fire_destroy_10
  - anim_fire_idle_2
  - anim_fire_destroy_3
  - anim_fire_destroy_16
  - anim_fire_idle_16
  - anim_fire_idle_20
  - anim_fire_idle_17
  - anim_fire_idle_18
  - anim_fire_idle_13
  - anim_fire_destroy_9
  - anim_fire_idle_21
  - anim_fire_idle_1
  - anim_fire_idle_9
  - anim_fire_destroy_11
  - anim_fire_idle_6
  - anim_fire_destroy_0
  - anim_fire_destroy_15
  - anim_fire_idle_3
  - anim_fire_idle_0
  - anim_fire_destroy_2
  - anim_fire_idle_19
  - anim_fire_idle_4
  - anim_fire_idle_8
  - anim_fire_idle_15
  m_Tag: FireBlock
  m_IsVariant: 0
